Switch/switch/switch.sim/sim_1/behav/xsim/dump.vcd
$date
   Fri Apr 22 19:34:03 2022
$end
$version
  2018.2
$end
$timescale
  1ps
$end
$scope module test $end
$var reg 1 ! clk $end
$var reg 1 " reset $end
$var reg 4 # mem_port_index [3:0] $end
$var reg 8 $ port_address [7:0] $end
$var reg 1 % mem_write $end
$var reg 8 & packet_data [7:0] $end
$var reg 1 ' packet_sent_req $end
$var wire 1 ( packet_finished $end
$var wire 10 ) port_req [9:0] $end
$var wire 80 * port_data [79:0] $end
$var reg 10 + port_received [9:0] $end
$var integer 32 , i $end
$upscope $end
$enddefinitions $end
#0
$dumpvars
x!
1"
b0 #
b0 $
0%
b0 &
0'
0(
b0 )
b0 *
b0 +
bx ,
$end
#5000
0!
#10000
1!
#15000
0!
#20000
1!
#25000
0!
#30000
1!
#35000
0!
#40000
1!
#45000
0!
#50000
1!
#55000
0!
#60000
1!
#65000
0!
#70000
1!
#75000
0!
#80000
1!
#85000
0!
#90000
1!
#95000
0!
#100000
1!
0"
b11 #
b1000101 $
#105000
0!
#110000
1!
1%
#115000
0!
#120000
1!
0%
#125000
0!
#130000
1!
b1000101 $
b101010 &
1'
#135000
0!
#140000
1!
0'
#145000
0!
#150000
1!
b1000 )
b101010000000000000000000000000 *
#155000
0!
#160000
1!
1(
b0 )
b0 *
b1000 +
b1010 ,
#165000
0!
#170000
1!
0(
#175000
0!
#180000
1!
b101010 $
b101010 &
1'
#185000
0!
#190000
1!
0'
